{
    "map": [
        {
            "redirect-port": 443,
            "description": "test",
            "listen-port": 8080,
            "redirect-host": "127.0.0.1"
        },
        {
            "redirect-port": 80,
            "description": "nginx",
            "listen-port": 8888,
            "redirect-host": "127.0.0.1"
        }
    ]
}